info face="unscii-8" size=16 bold=0 italic=0 charset="" unicode=0 stretchH=100 smooth=1 aa=1 padding=1,1,1,1 spacing=-2,-2
common lineHeight=15 base=13 scaleW=512 scaleH=512 pages=1 packed=0
page id=0 file="unscii-8.png"
chars count=225
char id=10    x=0    y=0    width=0    height=0    xoffset=0    yoffset=0    xadvance=0    page=0    chnl=0 
char id=32    x=245  y=29   width=10   height=3    xoffset=-1   yoffset=-2   xadvance=8    page=0    chnl=0 
char id=33    x=488  y=0    width=4    height=9    xoffset=2    yoffset=-1   xadvance=8    page=0    chnl=0 
char id=34    x=184  y=29   width=8    height=5    xoffset=0    yoffset=-1   xadvance=8    page=0    chnl=0 
char id=35    x=98   y=11   width=9    height=9    xoffset=-1   yoffset=-1   xadvance=8    page=0    chnl=0 
char id=36    x=81   y=11   width=8    height=9    xoffset=0    yoffset=-1   xadvance=8    page=0    chnl=0 
char id=37    x=89   y=11   width=9    height=9    xoffset=-1   yoffset=-1   xadvance=8    page=0    chnl=0 
char id=38    x=107  y=11   width=9    height=9    xoffset=-1   yoffset=-1   xadvance=8    page=0    chnl=0 
char id=39    x=144  y=29   width=5    height=6    xoffset=1    yoffset=-1   xadvance=8    page=0    chnl=0 
char id=40    x=504  y=0    width=6    height=9    xoffset=1    yoffset=-1   xadvance=8    page=0    chnl=0 
char id=41    x=0    y=11   width=6    height=9    xoffset=1    yoffset=-1   xadvance=8    page=0    chnl=0 
char id=42    x=417  y=20   width=10   height=8    xoffset=-1   yoffset=0    xadvance=8    page=0    chnl=0 
char id=43    x=108  y=29   width=8    height=7    xoffset=0    yoffset=0    xadvance=8    page=0    chnl=0 
char id=44    x=149  y=29   width=5    height=6    xoffset=1    yoffset=3    xadvance=8    page=0    chnl=0 
char id=45    x=209  y=29   width=8    height=4    xoffset=0    yoffset=2    xadvance=8    page=0    chnl=0 
char id=46    x=192  y=29   width=4    height=5    xoffset=2    yoffset=3    xadvance=8    page=0    chnl=0 
char id=47    x=52   y=11   width=10   height=9    xoffset=-1   yoffset=-1   xadvance=8    page=0    chnl=0 
char id=48    x=480  y=0    width=8    height=9    xoffset=0    yoffset=-1   xadvance=8    page=0    chnl=0 
char id=49    x=407  y=0    width=8    height=9    xoffset=0    yoffset=-1   xadvance=8    page=0    chnl=0 
char id=50    x=415  y=0    width=8    height=9    xoffset=0    yoffset=-1   xadvance=8    page=0    chnl=0 
char id=51    x=423  y=0    width=8    height=9    xoffset=0    yoffset=-1   xadvance=8    page=0    chnl=0 
char id=52    x=431  y=0    width=9    height=9    xoffset=-1   yoffset=-1   xadvance=8    page=0    chnl=0 
char id=53    x=440  y=0    width=8    height=9    xoffset=0    yoffset=-1   xadvance=8    page=0    chnl=0 
char id=54    x=448  y=0    width=8    height=9    xoffset=0    yoffset=-1   xadvance=8    page=0    chnl=0 
char id=55    x=456  y=0    width=8    height=9    xoffset=0    yoffset=-1   xadvance=8    page=0    chnl=0 
char id=56    x=464  y=0    width=8    height=9    xoffset=0    yoffset=-1   xadvance=8    page=0    chnl=0 
char id=57    x=472  y=0    width=8    height=9    xoffset=0    yoffset=-1   xadvance=8    page=0    chnl=0 
char id=58    x=500  y=0    width=4    height=9    xoffset=2    yoffset=-1   xadvance=8    page=0    chnl=0 
char id=59    x=37   y=0    width=5    height=10   xoffset=1    yoffset=-1   xadvance=8    page=0    chnl=0 
char id=60    x=34   y=11   width=7    height=9    xoffset=0    yoffset=-1   xadvance=8    page=0    chnl=0 
char id=61    x=154  y=29   width=8    height=6    xoffset=0    yoffset=1    xadvance=8    page=0    chnl=0 
char id=62    x=41   y=11   width=7    height=9    xoffset=0    yoffset=-1   xadvance=8    page=0    chnl=0 
char id=63    x=492  y=0    width=8    height=9    xoffset=0    yoffset=-1   xadvance=8    page=0    chnl=0 
char id=64    x=62   y=11   width=9    height=9    xoffset=-1   yoffset=-1   xadvance=8    page=0    chnl=0 
char id=65    x=130  y=0    width=8    height=9    xoffset=0    yoffset=-1   xadvance=8    page=0    chnl=0 
char id=66    x=138  y=0    width=8    height=9    xoffset=0    yoffset=-1   xadvance=8    page=0    chnl=0 
char id=67    x=146  y=0    width=8    height=9    xoffset=0    yoffset=-1   xadvance=8    page=0    chnl=0 
char id=68    x=154  y=0    width=8    height=9    xoffset=0    yoffset=-1   xadvance=8    page=0    chnl=0 
char id=69    x=162  y=0    width=8    height=9    xoffset=0    yoffset=-1   xadvance=8    page=0    chnl=0 
char id=70    x=170  y=0    width=8    height=9    xoffset=0    yoffset=-1   xadvance=8    page=0    chnl=0 
char id=71    x=178  y=0    width=8    height=9    xoffset=0    yoffset=-1   xadvance=8    page=0    chnl=0 
char id=72    x=186  y=0    width=8    height=9    xoffset=0    yoffset=-1   xadvance=8    page=0    chnl=0 
char id=73    x=194  y=0    width=8    height=9    xoffset=0    yoffset=-1   xadvance=8    page=0    chnl=0 
char id=74    x=202  y=0    width=8    height=9    xoffset=0    yoffset=-1   xadvance=8    page=0    chnl=0 
char id=75    x=210  y=0    width=9    height=9    xoffset=-1   yoffset=-1   xadvance=8    page=0    chnl=0 
char id=76    x=219  y=0    width=8    height=9    xoffset=0    yoffset=-1   xadvance=8    page=0    chnl=0 
char id=77    x=227  y=0    width=9    height=9    xoffset=-1   yoffset=-1   xadvance=8    page=0    chnl=0 
char id=78    x=236  y=0    width=9    height=9    xoffset=-1   yoffset=-1   xadvance=8    page=0    chnl=0 
char id=79    x=245  y=0    width=8    height=9    xoffset=0    yoffset=-1   xadvance=8    page=0    chnl=0 
char id=80    x=253  y=0    width=8    height=9    xoffset=0    yoffset=-1   xadvance=8    page=0    chnl=0 
char id=81    x=261  y=0    width=8    height=9    xoffset=0    yoffset=-1   xadvance=8    page=0    chnl=0 
char id=82    x=269  y=0    width=8    height=9    xoffset=0    yoffset=-1   xadvance=8    page=0    chnl=0 
char id=83    x=277  y=0    width=8    height=9    xoffset=0    yoffset=-1   xadvance=8    page=0    chnl=0 
char id=84    x=285  y=0    width=8    height=9    xoffset=0    yoffset=-1   xadvance=8    page=0    chnl=0 
char id=85    x=293  y=0    width=8    height=9    xoffset=0    yoffset=-1   xadvance=8    page=0    chnl=0 
char id=86    x=301  y=0    width=8    height=9    xoffset=0    yoffset=-1   xadvance=8    page=0    chnl=0 
char id=87    x=309  y=0    width=9    height=9    xoffset=-1   yoffset=-1   xadvance=8    page=0    chnl=0 
char id=88    x=318  y=0    width=10   height=9    xoffset=-1   yoffset=-1   xadvance=8    page=0    chnl=0 
char id=89    x=328  y=0    width=10   height=9    xoffset=-1   yoffset=-1   xadvance=8    page=0    chnl=0 
char id=90    x=338  y=0    width=8    height=9    xoffset=0    yoffset=-1   xadvance=8    page=0    chnl=0 
char id=91    x=6    y=11   width=6    height=9    xoffset=1    yoffset=-1   xadvance=8    page=0    chnl=0 
char id=92    x=71   y=11   width=10   height=9    xoffset=-1   yoffset=-1   xadvance=8    page=0    chnl=0 
char id=93    x=12   y=11   width=6    height=9    xoffset=1    yoffset=-1   xadvance=8    page=0    chnl=0 
char id=94    x=99   y=29   width=9    height=7    xoffset=-1   yoffset=-1   xadvance=8    page=0    chnl=0 
char id=95    x=217  y=29   width=10   height=4    xoffset=-1   yoffset=6    xadvance=8    page=0    chnl=0 
char id=96    x=138  y=29   width=6    height=6    xoffset=2    yoffset=-1   xadvance=8    page=0    chnl=0 
char id=97    x=0    y=29   width=8    height=7    xoffset=0    yoffset=1    xadvance=8    page=0    chnl=0 
char id=98    x=346  y=0    width=8    height=9    xoffset=0    yoffset=-1   xadvance=8    page=0    chnl=0 
char id=99    x=504  y=20   width=7    height=7    xoffset=0    yoffset=1    xadvance=8    page=0    chnl=0 
char id=100   x=354  y=0    width=8    height=9    xoffset=0    yoffset=-1   xadvance=8    page=0    chnl=0 
char id=101   x=8    y=29   width=8    height=7    xoffset=0    yoffset=1    xadvance=8    page=0    chnl=0 
char id=102   x=362  y=0    width=7    height=9    xoffset=0    yoffset=-1   xadvance=8    page=0    chnl=0 
char id=103   x=385  y=20   width=8    height=8    xoffset=0    yoffset=1    xadvance=8    page=0    chnl=0 
char id=104   x=369  y=0    width=8    height=9    xoffset=0    yoffset=-1   xadvance=8    page=0    chnl=0 
char id=105   x=377  y=0    width=7    height=9    xoffset=1    yoffset=-1   xadvance=8    page=0    chnl=0 
char id=106   x=30   y=0    width=7    height=10   xoffset=0    yoffset=-1   xadvance=8    page=0    chnl=0 
char id=107   x=384  y=0    width=8    height=9    xoffset=0    yoffset=-1   xadvance=8    page=0    chnl=0 
char id=108   x=392  y=0    width=7    height=9    xoffset=1    yoffset=-1   xadvance=8    page=0    chnl=0 
char id=109   x=16   y=29   width=9    height=7    xoffset=-1   yoffset=1    xadvance=8    page=0    chnl=0 
char id=110   x=25   y=29   width=8    height=7    xoffset=0    yoffset=1    xadvance=8    page=0    chnl=0 
char id=111   x=33   y=29   width=8    height=7    xoffset=0    yoffset=1    xadvance=8    page=0    chnl=0 
char id=112   x=393  y=20   width=8    height=8    xoffset=0    yoffset=1    xadvance=8    page=0    chnl=0 
char id=113   x=401  y=20   width=8    height=8    xoffset=0    yoffset=1    xadvance=8    page=0    chnl=0 
char id=114   x=41   y=29   width=8    height=7    xoffset=0    yoffset=1    xadvance=8    page=0    chnl=0 
char id=115   x=49   y=29   width=8    height=7    xoffset=0    yoffset=1    xadvance=8    page=0    chnl=0 
char id=116   x=399  y=0    width=8    height=9    xoffset=0    yoffset=-1   xadvance=8    page=0    chnl=0 
char id=117   x=57   y=29   width=8    height=7    xoffset=0    yoffset=1    xadvance=8    page=0    chnl=0 
char id=118   x=65   y=29   width=8    height=7    xoffset=0    yoffset=1    xadvance=8    page=0    chnl=0 
char id=119   x=73   y=29   width=9    height=7    xoffset=-1   yoffset=1    xadvance=8    page=0    chnl=0 
char id=120   x=82   y=29   width=9    height=7    xoffset=-1   yoffset=1    xadvance=8    page=0    chnl=0 
char id=121   x=409  y=20   width=8    height=8    xoffset=0    yoffset=1    xadvance=8    page=0    chnl=0 
char id=122   x=91   y=29   width=8    height=7    xoffset=0    yoffset=1    xadvance=8    page=0    chnl=0 
char id=123   x=18   y=11   width=8    height=9    xoffset=0    yoffset=-1   xadvance=8    page=0    chnl=0 
char id=124   x=48   y=11   width=4    height=9    xoffset=2    yoffset=-1   xadvance=8    page=0    chnl=0 
char id=125   x=26   y=11   width=8    height=9    xoffset=0    yoffset=-1   xadvance=8    page=0    chnl=0 
char id=126   x=196  y=29   width=9    height=5    xoffset=-1   yoffset=-1   xadvance=8    page=0    chnl=0 
char id=127   x=116  y=11   width=9    height=9    xoffset=-1   yoffset=-1   xadvance=8    page=0    chnl=0 
char id=128   x=125  y=11   width=9    height=9    xoffset=-1   yoffset=-1   xadvance=8    page=0    chnl=0 
char id=129   x=134  y=11   width=9    height=9    xoffset=-1   yoffset=-1   xadvance=8    page=0    chnl=0 
char id=130   x=143  y=11   width=9    height=9    xoffset=-1   yoffset=-1   xadvance=8    page=0    chnl=0 
char id=131   x=152  y=11   width=9    height=9    xoffset=-1   yoffset=-1   xadvance=8    page=0    chnl=0 
char id=132   x=42   y=0    width=9    height=10   xoffset=-1   yoffset=-1   xadvance=8    page=0    chnl=0 
char id=133   x=161  y=11   width=9    height=9    xoffset=-1   yoffset=-1   xadvance=8    page=0    chnl=0 
char id=134   x=170  y=11   width=9    height=9    xoffset=-1   yoffset=-1   xadvance=8    page=0    chnl=0 
char id=135   x=179  y=11   width=9    height=9    xoffset=-1   yoffset=-1   xadvance=8    page=0    chnl=0 
char id=136   x=188  y=11   width=9    height=9    xoffset=-1   yoffset=-1   xadvance=8    page=0    chnl=0 
char id=137   x=197  y=11   width=9    height=9    xoffset=-1   yoffset=-1   xadvance=8    page=0    chnl=0 
char id=138   x=206  y=11   width=9    height=9    xoffset=-1   yoffset=-1   xadvance=8    page=0    chnl=0 
char id=139   x=51   y=0    width=10   height=10   xoffset=-1   yoffset=-1   xadvance=8    page=0    chnl=0 
char id=140   x=215  y=11   width=9    height=9    xoffset=-1   yoffset=-1   xadvance=8    page=0    chnl=0 
char id=141   x=224  y=11   width=9    height=9    xoffset=-1   yoffset=-1   xadvance=8    page=0    chnl=0 
char id=142   x=233  y=11   width=9    height=9    xoffset=-1   yoffset=-1   xadvance=8    page=0    chnl=0 
char id=143   x=242  y=11   width=9    height=9    xoffset=-1   yoffset=-1   xadvance=8    page=0    chnl=0 
char id=144   x=251  y=11   width=9    height=9    xoffset=-1   yoffset=-1   xadvance=8    page=0    chnl=0 
char id=145   x=260  y=11   width=9    height=9    xoffset=-1   yoffset=-1   xadvance=8    page=0    chnl=0 
char id=146   x=269  y=11   width=9    height=9    xoffset=-1   yoffset=-1   xadvance=8    page=0    chnl=0 
char id=147   x=278  y=11   width=9    height=9    xoffset=-1   yoffset=-1   xadvance=8    page=0    chnl=0 
char id=148   x=287  y=11   width=9    height=9    xoffset=-1   yoffset=-1   xadvance=8    page=0    chnl=0 
char id=149   x=296  y=11   width=9    height=9    xoffset=-1   yoffset=-1   xadvance=8    page=0    chnl=0 
char id=150   x=305  y=11   width=9    height=9    xoffset=-1   yoffset=-1   xadvance=8    page=0    chnl=0 
char id=151   x=314  y=11   width=9    height=9    xoffset=-1   yoffset=-1   xadvance=8    page=0    chnl=0 
char id=152   x=323  y=11   width=9    height=9    xoffset=-1   yoffset=-1   xadvance=8    page=0    chnl=0 
char id=153   x=332  y=11   width=9    height=9    xoffset=-1   yoffset=-1   xadvance=8    page=0    chnl=0 
char id=154   x=341  y=11   width=9    height=9    xoffset=-1   yoffset=-1   xadvance=8    page=0    chnl=0 
char id=155   x=350  y=11   width=9    height=9    xoffset=-1   yoffset=-1   xadvance=8    page=0    chnl=0 
char id=156   x=61   y=0    width=9    height=10   xoffset=-1   yoffset=-1   xadvance=8    page=0    chnl=0 
char id=157   x=359  y=11   width=9    height=9    xoffset=-1   yoffset=-1   xadvance=8    page=0    chnl=0 
char id=158   x=368  y=11   width=9    height=9    xoffset=-1   yoffset=-1   xadvance=8    page=0    chnl=0 
char id=159   x=377  y=11   width=9    height=9    xoffset=-1   yoffset=-1   xadvance=8    page=0    chnl=0 
char id=160   x=0    y=0    width=0    height=0    xoffset=-1   yoffset=-2   xadvance=8    page=0    chnl=0 
char id=161   x=386  y=11   width=4    height=9    xoffset=2    yoffset=-1   xadvance=8    page=0    chnl=0 
char id=162   x=427  y=20   width=9    height=8    xoffset=-1   yoffset=0    xadvance=8    page=0    chnl=0 
char id=163   x=390  y=11   width=9    height=9    xoffset=-1   yoffset=-1   xadvance=8    page=0    chnl=0 
char id=164   x=436  y=20   width=8    height=8    xoffset=0    yoffset=-1   xadvance=8    page=0    chnl=0 
char id=165   x=399  y=11   width=10   height=9    xoffset=-1   yoffset=-1   xadvance=8    page=0    chnl=0 
char id=166   x=409  y=11   width=4    height=9    xoffset=2    yoffset=-1   xadvance=8    page=0    chnl=0 
char id=167   x=70   y=0    width=8    height=10   xoffset=0    yoffset=-1   xadvance=8    page=0    chnl=0 
char id=168   x=227  y=29   width=8    height=4    xoffset=0    yoffset=-1   xadvance=8    page=0    chnl=0 
char id=169   x=0    y=0    width=10   height=11   xoffset=-1   yoffset=-1   xadvance=8    page=0    chnl=0 
char id=170   x=444  y=20   width=8    height=8    xoffset=0    yoffset=-1   xadvance=8    page=0    chnl=0 
char id=171   x=452  y=20   width=10   height=8    xoffset=-1   yoffset=0    xadvance=8    page=0    chnl=0 
char id=172   x=162  y=29   width=8    height=6    xoffset=0    yoffset=0    xadvance=8    page=0    chnl=0 
char id=173   x=235  y=29   width=6    height=4    xoffset=1    yoffset=2    xadvance=8    page=0    chnl=0 
char id=174   x=10   y=0    width=10   height=11   xoffset=-1   yoffset=-1   xadvance=8    page=0    chnl=0 
char id=175   x=209  y=29   width=8    height=4    xoffset=0    yoffset=-1   xadvance=8    page=0    chnl=0 
char id=176   x=170  y=29   width=8    height=6    xoffset=0    yoffset=-1   xadvance=8    page=0    chnl=0 
char id=177   x=413  y=11   width=8    height=9    xoffset=0    yoffset=-1   xadvance=8    page=0    chnl=0 
char id=178   x=505  y=11   width=6    height=7    xoffset=0    yoffset=-1   xadvance=8    page=0    chnl=0 
char id=179   x=116  y=29   width=7    height=7    xoffset=0    yoffset=-1   xadvance=8    page=0    chnl=0 
char id=180   x=178  y=29   width=6    height=6    xoffset=1    yoffset=-1   xadvance=8    page=0    chnl=0 
char id=181   x=462  y=20   width=9    height=8    xoffset=-1   yoffset=1    xadvance=8    page=0    chnl=0 
char id=182   x=421  y=11   width=8    height=9    xoffset=0    yoffset=-1   xadvance=8    page=0    chnl=0 
char id=183   x=241  y=29   width=4    height=4    xoffset=2    yoffset=2    xadvance=8    page=0    chnl=0 
char id=184   x=205  y=29   width=4    height=5    xoffset=2    yoffset=5    xadvance=8    page=0    chnl=0 
char id=185   x=123  y=29   width=5    height=7    xoffset=0    yoffset=-1   xadvance=8    page=0    chnl=0 
char id=186   x=471  y=20   width=7    height=8    xoffset=0    yoffset=-1   xadvance=8    page=0    chnl=0 
char id=187   x=478  y=20   width=10   height=8    xoffset=-1   yoffset=0    xadvance=8    page=0    chnl=0 
char id=188   x=78   y=0    width=10   height=10   xoffset=-1   yoffset=-1   xadvance=8    page=0    chnl=0 
char id=189   x=20   y=0    width=10   height=11   xoffset=-1   yoffset=-1   xadvance=8    page=0    chnl=0 
char id=190   x=88   y=0    width=10   height=10   xoffset=-1   yoffset=-1   xadvance=8    page=0    chnl=0 
char id=191   x=429  y=11   width=8    height=9    xoffset=0    yoffset=-1   xadvance=8    page=0    chnl=0 
char id=192   x=437  y=11   width=8    height=9    xoffset=0    yoffset=-1   xadvance=8    page=0    chnl=0 
char id=193   x=445  y=11   width=8    height=9    xoffset=0    yoffset=-1   xadvance=8    page=0    chnl=0 
char id=194   x=453  y=11   width=8    height=9    xoffset=0    yoffset=-1   xadvance=8    page=0    chnl=0 
char id=195   x=461  y=11   width=9    height=9    xoffset=-1   yoffset=-1   xadvance=8    page=0    chnl=0 
char id=196   x=470  y=11   width=8    height=9    xoffset=0    yoffset=-1   xadvance=8    page=0    chnl=0 
char id=197   x=478  y=11   width=8    height=9    xoffset=0    yoffset=-1   xadvance=8    page=0    chnl=0 
char id=198   x=486  y=11   width=10   height=9    xoffset=-1   yoffset=-1   xadvance=8    page=0    chnl=0 
char id=199   x=98   y=0    width=8    height=10   xoffset=0    yoffset=-1   xadvance=8    page=0    chnl=0 
char id=200   x=437  y=11   width=8    height=9    xoffset=0    yoffset=-1   xadvance=8    page=0    chnl=0 
char id=201   x=445  y=11   width=8    height=9    xoffset=0    yoffset=-1   xadvance=8    page=0    chnl=0 
char id=202   x=496  y=11   width=9    height=9    xoffset=-1   yoffset=-1   xadvance=8    page=0    chnl=0 
char id=203   x=470  y=11   width=8    height=9    xoffset=0    yoffset=-1   xadvance=8    page=0    chnl=0 
char id=204   x=0    y=20   width=8    height=9    xoffset=0    yoffset=-1   xadvance=8    page=0    chnl=0 
char id=205   x=8    y=20   width=8    height=9    xoffset=0    yoffset=-1   xadvance=8    page=0    chnl=0 
char id=206   x=16   y=20   width=8    height=9    xoffset=0    yoffset=-1   xadvance=8    page=0    chnl=0 
char id=207   x=24   y=20   width=8    height=9    xoffset=0    yoffset=-1   xadvance=8    page=0    chnl=0 
char id=208   x=32   y=20   width=9    height=9    xoffset=-1   yoffset=-1   xadvance=8    page=0    chnl=0 
char id=209   x=41   y=20   width=9    height=9    xoffset=-1   yoffset=-1   xadvance=8    page=0    chnl=0 
char id=210   x=50   y=20   width=9    height=9    xoffset=-1   yoffset=-1   xadvance=8    page=0    chnl=0 
char id=211   x=59   y=20   width=9    height=9    xoffset=-1   yoffset=-1   xadvance=8    page=0    chnl=0 
char id=212   x=68   y=20   width=9    height=9    xoffset=-1   yoffset=-1   xadvance=8    page=0    chnl=0 
char id=213   x=77   y=20   width=9    height=9    xoffset=-1   yoffset=-1   xadvance=8    page=0    chnl=0 
char id=214   x=86   y=20   width=9    height=9    xoffset=-1   yoffset=-1   xadvance=8    page=0    chnl=0 
char id=215   x=488  y=20   width=9    height=8    xoffset=-1   yoffset=0    xadvance=8    page=0    chnl=0 
char id=216   x=95   y=20   width=8    height=9    xoffset=0    yoffset=-1   xadvance=8    page=0    chnl=0 
char id=217   x=103  y=20   width=9    height=9    xoffset=-1   yoffset=-1   xadvance=8    page=0    chnl=0 
char id=218   x=112  y=20   width=9    height=9    xoffset=-1   yoffset=-1   xadvance=8    page=0    chnl=0 
char id=219   x=121  y=20   width=9    height=9    xoffset=-1   yoffset=-1   xadvance=8    page=0    chnl=0 
char id=220   x=130  y=20   width=9    height=9    xoffset=-1   yoffset=-1   xadvance=8    page=0    chnl=0 
char id=221   x=139  y=20   width=8    height=9    xoffset=0    yoffset=-1   xadvance=8    page=0    chnl=0 
char id=222   x=147  y=20   width=9    height=9    xoffset=-1   yoffset=-1   xadvance=8    page=0    chnl=0 
char id=223   x=156  y=20   width=8    height=9    xoffset=0    yoffset=-1   xadvance=8    page=0    chnl=0 
char id=224   x=164  y=20   width=8    height=9    xoffset=0    yoffset=-1   xadvance=8    page=0    chnl=0 
char id=225   x=172  y=20   width=8    height=9    xoffset=0    yoffset=-1   xadvance=8    page=0    chnl=0 
char id=226   x=180  y=20   width=9    height=9    xoffset=-1   yoffset=-1   xadvance=8    page=0    chnl=0 
char id=227   x=189  y=20   width=9    height=9    xoffset=-1   yoffset=-1   xadvance=8    page=0    chnl=0 
char id=228   x=198  y=20   width=8    height=9    xoffset=0    yoffset=-1   xadvance=8    page=0    chnl=0 
char id=229   x=206  y=20   width=9    height=9    xoffset=-1   yoffset=-1   xadvance=8    page=0    chnl=0 
char id=230   x=128  y=29   width=10   height=7    xoffset=-1   yoffset=1    xadvance=8    page=0    chnl=0 
char id=231   x=497  y=20   width=7    height=8    xoffset=0    yoffset=1    xadvance=8    page=0    chnl=0 
char id=232   x=215  y=20   width=8    height=9    xoffset=0    yoffset=-1   xadvance=8    page=0    chnl=0 
char id=233   x=223  y=20   width=8    height=9    xoffset=0    yoffset=-1   xadvance=8    page=0    chnl=0 
char id=234   x=231  y=20   width=8    height=9    xoffset=0    yoffset=-1   xadvance=8    page=0    chnl=0 
char id=235   x=239  y=20   width=8    height=9    xoffset=0    yoffset=-1   xadvance=8    page=0    chnl=0 
char id=236   x=247  y=20   width=7    height=9    xoffset=0    yoffset=-1   xadvance=8    page=0    chnl=0 
char id=237   x=254  y=20   width=7    height=9    xoffset=1    yoffset=-1   xadvance=8    page=0    chnl=0 
char id=238   x=261  y=20   width=8    height=9    xoffset=0    yoffset=-1   xadvance=8    page=0    chnl=0 
char id=239   x=269  y=20   width=8    height=9    xoffset=0    yoffset=-1   xadvance=8    page=0    chnl=0 
char id=240   x=277  y=20   width=9    height=9    xoffset=-1   yoffset=-1   xadvance=8    page=0    chnl=0 
char id=241   x=286  y=20   width=9    height=9    xoffset=-1   yoffset=-1   xadvance=8    page=0    chnl=0 
char id=242   x=295  y=20   width=8    height=9    xoffset=0    yoffset=-1   xadvance=8    page=0    chnl=0 
char id=243   x=303  y=20   width=8    height=9    xoffset=0    yoffset=-1   xadvance=8    page=0    chnl=0 
char id=244   x=311  y=20   width=8    height=9    xoffset=0    yoffset=-1   xadvance=8    page=0    chnl=0 
char id=245   x=319  y=20   width=9    height=9    xoffset=-1   yoffset=-1   xadvance=8    page=0    chnl=0 
char id=246   x=328  y=20   width=8    height=9    xoffset=0    yoffset=-1   xadvance=8    page=0    chnl=0 
char id=247   x=336  y=20   width=8    height=9    xoffset=0    yoffset=-1   xadvance=8    page=0    chnl=0 
char id=248   x=344  y=20   width=9    height=9    xoffset=-1   yoffset=0    xadvance=8    page=0    chnl=0 
char id=249   x=353  y=20   width=8    height=9    xoffset=0    yoffset=-1   xadvance=8    page=0    chnl=0 
char id=250   x=361  y=20   width=8    height=9    xoffset=0    yoffset=-1   xadvance=8    page=0    chnl=0 
char id=251   x=369  y=20   width=8    height=9    xoffset=0    yoffset=-1   xadvance=8    page=0    chnl=0 
char id=252   x=377  y=20   width=8    height=9    xoffset=0    yoffset=-1   xadvance=8    page=0    chnl=0 
char id=253   x=106  y=0    width=8    height=10   xoffset=0    yoffset=-1   xadvance=8    page=0    chnl=0 
char id=254   x=114  y=0    width=8    height=10   xoffset=0    yoffset=-1   xadvance=8    page=0    chnl=0 
char id=255   x=122  y=0    width=8    height=10   xoffset=0    yoffset=-1   xadvance=8    page=0    chnl=0 
kernings count=0
