{
  "name":"Testing Level",
  "spawn":{
    "x":40.0,
    "y":40.0,
    "angle":45.0
  },
  "scale":4.0,
  "ground":"ground.png",
  "background":{"file":"background.png",
    "repetition":1.0
  },
  "map":"map.tmx"
}
